{
  "name": "",
  "css_prefix_text": "icon-",
  "css_use_suffix": false,
  "hinting": true,
  "units_per_em": 1000,
  "ascent": 850,
  "glyphs": [
    {
      "uid": "d92a3efcdf848fb0abd9410b8d95813e",
      "css": "person",
      "code": 59392,
      "src": "elusive"
    },
    {
      "uid": "d8d378d0ce413f231dfa37592e39c227",
      "css": "pause",
      "code": 59393,
      "src": "entypo"
    },
    {
      "uid": "cb13afd4722a849d48056540bb74c47e",
      "css": "play",
      "code": 59394,
      "src": "entypo"
    },
    {
      "uid": "9bd60140934a1eb9236fd7a8ab1ff6ba",
      "css": "spin4",
      "code": 59444,
      "src": "fontelico"
    },
    {
      "uid": "62bc6fe2a82e4864e2b94d4c0985ee0c",
      "css": "up-small",
      "code": 59395,
      "src": "typicons"
    },
    {
      "uid": "c16a63e911bc47b46dc2a7129d2f0c46",
      "css": "down-small",
      "code": 59396,
      "src": "typicons"
    },
    {
      "uid": "44e04715aecbca7f266a17d5a7863c68",
      "css": "plus",
      "code": 59397,
      "src": "fontawesome"
    },
    {
      "uid": "e99461abfef3923546da8d745372c995",
      "css": "cog",
      "code": 59436,
      "src": "fontawesome"
    },
    {
      "uid": "0d20938846444af8deb1920dc85a29fb",
      "css": "logout",
      "code": 59398,
      "src": "fontawesome"
    },
    {
      "uid": "f3f90c8c89795da30f7444634476ea4f",
      "css": "angle-left",
      "code": 61700,
      "src": "fontawesome"
    },
    {
      "uid": "7bf14281af5633a597f85b061ef1cfb9",
      "css": "angle-right",
      "code": 61701,
      "src": "fontawesome"
    },
    {
      "uid": "5211af474d3a9848f67f945e2ccaf143",
      "css": "cancel",
      "code": 59399,
      "src": "fontawesome"
    },
    {
      "uid": "bbfb51903f40597f0b70fd75bc7b5cac",
      "css": "trash",
      "code": 61944,
      "src": "fontawesome"
    },
    {
      "uid": "d35a1d35efeb784d1dc9ac18b9b6c2b6",
      "css": "pencil",
      "code": 59400,
      "src": "fontawesome"
    },
    {
      "uid": "531bc468eecbb8867d822f1c11f1e039",
      "css": "calendar",
      "code": 59401,
      "src": "fontawesome"
    },
    {
      "uid": "a73c5deb486c8d66249811642e5d719a",
      "css": "arrows-cw",
      "code": 59402,
      "src": "fontawesome"
    },
    {
      "uid": "598a5f2bcf3521d1615de8e1881ccd17",
      "css": "clock",
      "code": 59403,
      "src": "fontawesome"
    },
    {
      "uid": "750058837a91edae64b03d60fc7e81a7",
      "css": "ellipsis-vert",
      "code": 61762,
      "src": "fontawesome"
    },
    {
      "uid": "757afacc32d82967975cbb3b45cfb41b",
      "css": "desktop",
      "code": 61704,
      "src": "fontawesome"
    },
    {
      "uid": "31972e4e9d080eaa796290349ae6c1fd",
      "css": "users",
      "code": 59404,
      "src": "fontawesome"
    },
    {
      "uid": "8b80d36d4ef43889db10bc1f0dc9a862",
      "css": "user",
      "code": 59430,
      "src": "fontawesome"
    },
    {
      "uid": "e4dde1992f787163e2e2b534b8c8067d",
      "css": "angle-down",
      "code": 61703,
      "src": "fontawesome"
    },
    {
      "uid": "5de9370846a26947e03f63142a3f1c07",
      "css": "angle-up",
      "code": 61702,
      "src": "fontawesome"
    }
  ]
}